%YAML 1.1
%TAG !u! tag:unity3d.com,2011:
--- !u!1 &162890
GameObject:
  m_ObjectHideFlags: 0
  m_PrefabParentObject: {fileID: 0}
  m_PrefabInternal: {fileID: 100100000}
  serializedVersion: 4
  m_Component:
  - 4: {fileID: 480044}
  - 114: {fileID: 11450314}
  m_Layer: 0
  m_Name: PlayerPrefab
  m_TagString: Untagged
  m_Icon: {fileID: 0}
  m_NavMeshLayer: 0
  m_StaticEditorFlags: 0
  m_IsActive: 1
--- !u!4 &480044
Transform:
  m_ObjectHideFlags: 1
  m_PrefabParentObject: {fileID: 0}
  m_PrefabInternal: {fileID: 100100000}
  m_GameObject: {fileID: 162890}
  m_LocalRotation: {x: 0, y: 0, z: 0, w: 1}
  m_LocalPosition: {x: 0, y: 0, z: 0}
  m_LocalScale: {x: 1, y: 1, z: 1}
  m_Children: []
  m_Father: {fileID: 0}
  m_RootOrder: 0
--- !u!114 &11450314
MonoBehaviour:
  m_ObjectHideFlags: 1
  m_PrefabParentObject: {fileID: 0}
  m_PrefabInternal: {fileID: 100100000}
  m_GameObject: {fileID: 162890}
  m_Enabled: 1
  m_EditorHideFlags: 0
  m_Script: {fileID: 11500000, guid: e8599d0f5d7749d47ba26442505913f7, type: 3}
  m_Name: 
  m_EditorClassIdentifier: 
  m_spaceshipPrefab: {fileID: 11483024, guid: c4e546f6ac2d69b41be3bcde29b45494, type: 2}
  m_color: {r: 1, g: 0, b: 0, a: 1}
  m_spawnExplosionPrefab: {fileID: 11456784, guid: 9e2fe67e7e1e28042a49a871c2813373,
    type: 2}
  m_spawnInvulnerabilityTime: 2
  m_specialInvulnerabilityTime: .25
--- !u!1001 &100100000
Prefab:
  m_ObjectHideFlags: 1
  serializedVersion: 2
  m_Modification:
    m_TransformParent: {fileID: 0}
    m_Modifications: []
    m_RemovedComponents: []
  m_ParentPrefab: {fileID: 0}
  m_RootGameObject: {fileID: 162890}
  m_IsPrefabParent: 1
