%YAML 1.1
%TAG !u! tag:unity3d.com,2011:
--- !u!1 &132974
GameObject:
  m_ObjectHideFlags: 0
  m_PrefabParentObject: {fileID: 0}
  m_PrefabInternal: {fileID: 100100000}
  serializedVersion: 4
  m_Component:
  - 4: {fileID: 423534}
  - 114: {fileID: 11434220}
  m_Layer: 0
  m_Name: SplashStart
  m_TagString: Untagged
  m_Icon: {fileID: 0}
  m_NavMeshLayer: 0
  m_StaticEditorFlags: 0
  m_IsActive: 1
--- !u!4 &423534
Transform:
  m_ObjectHideFlags: 1
  m_PrefabParentObject: {fileID: 0}
  m_PrefabInternal: {fileID: 100100000}
  m_GameObject: {fileID: 132974}
  m_LocalRotation: {x: 0, y: 0, z: 0, w: 1}
  m_LocalPosition: {x: 0, y: 0, z: -10}
  m_LocalScale: {x: 1, y: 1, z: 1}
  m_Children: []
  m_Father: {fileID: 0}
  m_RootOrder: 0
--- !u!114 &11434220
MonoBehaviour:
  m_ObjectHideFlags: 1
  m_PrefabParentObject: {fileID: 0}
  m_PrefabInternal: {fileID: 100100000}
  m_GameObject: {fileID: 132974}
  m_Enabled: 1
  m_EditorHideFlags: 0
  m_Script: {fileID: 11500000, guid: 55dc3e3cb2e94334e964b874a35092d9, type: 3}
  m_Name: 
  m_EditorClassIdentifier: 
  m_playerPrefab: {fileID: 162890, guid: 0297460886062c845ba38509a39d7c5e, type: 2}
  m_helpText: {fileID: 0}
  m_dust: {fileID: 0}
  m_level: supergame
  m_shipPrefab: {fileID: 11483024, guid: c4e546f6ac2d69b41be3bcde29b45494, type: 2}
  m_playerPos:
  - {fileID: 0}
  - {fileID: 0}
  - {fileID: 0}
  - {fileID: 0}
  - {fileID: 0}
  - {fileID: 0}
  - {fileID: 0}
  - {fileID: 0}
  m_playerIndicatorExplosionPrefab: {fileID: 149324, guid: 24f13a49500334a4493e10ac1d2fe45e,
    type: 2}
  m_colors:
  - {r: 1, g: .641379297, b: 0, a: 0}
  - {r: 1, g: 0, b: 0, a: 0}
  - {r: 0, g: 1, b: .296551704, a: 0}
  - {r: .570588171, g: .463235319, b: 1, a: 0}
  - {r: 1, g: 0, b: .972414017, a: 0}
  - {r: .820689678, g: 1, b: 0, a: 0}
  - {r: 0, g: .810598254, b: .845588207, a: 0}
  - {r: 0, g: .420689583, b: 1, a: 0}
  - {r: .897058845, g: 1, b: .927586198, a: 0}
  m_menu: {fileID: 0}
  m_title: {fileID: 0}
  m_menuOwner: 0
  m_zoomLevels:
  - 25
  - 35
  - 45
  - 17
--- !u!1001 &100100000
Prefab:
  m_ObjectHideFlags: 1
  serializedVersion: 2
  m_Modification:
    m_TransformParent: {fileID: 0}
    m_Modifications: []
    m_RemovedComponents: []
  m_ParentPrefab: {fileID: 0}
  m_RootGameObject: {fileID: 132974}
  m_IsPrefabParent: 1
